6 Logistic regression | Analytical Paleobiology
…
We’re going to be ignoring the time structure of the data for now. We’ll cover time series models in a later lesson. For now, we are just interested how size and shape measures predict coiling with the assumption that this relationship is constant over time.

Let’s bring the data into the memory and start playing around with it. The Peason and Ezard paper describes a few derived measures, like compression ratio, that we can quickly recalculate.

# read in excel data directly with function from readxl
(foram <- read_xlsx(path = here::here('data', 'pearson_ezard', 
                                     'turborotalia_data.xlsx')) %>%
  janitor::clean_names() %>%
  # useful derived measures
  mutate(compression = diameter / axis,
         chamber_aspect = chamber_height / chamber_width,
         aperture_aspect = aperture_height / aperture_width,
         dextral = as.factor(dextral)))

## # A tibble: 10,200 x 22
##    core  section interval depth   age    id baseline diameter  axis radius
##    <chr>   <dbl> <chr>    <dbl> <dbl> <dbl>    <dbl>    <dbl> <dbl>  <dbl>
##  1 3H          1 18.5-18…  18.5  34.7     1     389.     597.  381.   252.
##  2 3H          1 18.5-18…  18.5  34.7     2     388.     571.  364.   244.
##  3 3H          1 18.5-18…  18.5  34.7     3     387.     570.  355.   242.
##  4 3H          1 18.5-18…  18.5  34.7     4     367.     513.  341.   244.
##  5 3H          1 18.5-18…  18.5  34.7     5     335.     554.  341.   292.
##  6 3H          1 18.5-18…  18.5  34.7     6     319.     518.  308.   218.
##  7 3H          1 18.5-18…  18.5  34.7     7     293.     526.  259.   207.
##  8 3H          1 18.5-18…  18.5  34.7     8     445.     703.  463.   319.
##  9 3H          1 18.5-18…  18.5  34.7     9     387.     567.  351.   228.
## 10 3H          1 18.5-18…  18.5  34.7    10     290.     496.  286.   229.
## # … with 10,190 more rows, and 12 more variables: aperture_width <dbl>,
## #   aperture_height <dbl>, chamber_width <dbl>, chamber_height <dbl>,
## #   umbilical_angle <dbl>, periphery <dbl>, area <dbl>,
## #   chamber_number <dbl>, dextral <fct>, compression <dbl>,
## #   chamber_aspect <dbl>, aperture_aspect <dbl>
…
