5 Multiple predictors and interactions in linear regression | Analytical Paleobiology
…
## See spec(...) for full column specifications.

5.3.1 Categorical predictor

Trophic level is a categorical predictor with three levels. The previous categorical predictor we dealt with (Bivalve versus Brachiopod) was binary which made it very easy to interpret. In that lesson I briefly introduced the idea of dummy coding and demonstrated how that would work with a three level categorical variable. I’m going to reiterate and expand on that demonstration here.

brm, and R in general, will automatically translate categorical predictors like our trophic_level variable into what’s called dummy coding.

When we dummy code a categorical variable what we are doing is turning one variable with \(k\) states into \(k - 1\) binary variables. One state of the categorical variable is considered the “baseline” or the default condition for any observation. The other \(k - 1\) binary variables then describe if the observation is different from the default – these are called contrasts. The standard behavior for this in R is that the first state, alphabetically, is made the baseline. Here is this in action:

(pantheria %>%
  drop_na(trophic_level) %>%
  model_matrix(~ trophic_level))

## # A tibble: 2,161 x 3
##    `(Intercept)` trophic_levelherbivore trophic_levelomnivore
##            <dbl>                  <dbl>                 <dbl>
##  1             1                      1                     0
##  2             1                      0                     1
##  3             1                      0                     1
##  4             1                      0                     0
##  5             1                      0                     0
##  6             1                      1                     0
##  7             1                      1                     0
##  8             1                      1                     0
##  9             1                      0                     1
## 10             1                      0                     1
## # … with 2,151 more rows

The model_matrix() function returns a tibble with \(k\) columns. Take a closer look at the column names. First, focus on the second and third columns. Each title is the variable name (trophic_level) combined with one of the levels (e.g. trophic_levelherbivore). One of the factor’s levels, carnivore, is not named as one of the columns, instead that level is subsumed in the (Intercept) column.

The default state of any observation is this “carnivore.” A 0 in the trophic_levelherbivore or trophic_levelomnivore columns means that the observation is not an herbivore or omnivore, respectively. If there is a 1 in the herbivore or omnivore column that means that observation is an herbivore or omnivore and not a carnivore – hence why the \(k - 1\) binary variables are called contrasts (with respect to the default condition/intercept). Importantly, an observation cannot/should not have a 1 in more than one of the \(k - 1\) binary variables associated with a single categorical predictor.

Let’s see what happens when we suppress the intercept using R’s formula syntax.

(pantheria %>%
  drop_na(trophic_level) %>%
  model_matrix(~ -1 + trophic_level))

## # A tibble: 2,161 x 3
##    trophic_levelcarnivore trophic_levelherbivore trophic_levelomnivore
##                     <dbl>                  <dbl>                 <dbl>
##  1                      0                      1                     0
##  2                      0                      0                     1
##  3                      0                      0                     1
##  4                      1                      0                     0
##  5                      1                      0                     0
##  6                      0                      1                     0
##  7                      0                      1                     0
##  8                      0                      1                     0
##  9                      0                      0                     1
## 10                      0                      0                     1
## # … with 2,151 more rows

By suppressing the intercept in our model matrix, we’ve dramatically changed the first column of our tibble. Instead of being labeled (Intercept) and being a column of only 1s, we have a column named trophic_levelcarnivora which is a binary variable indicating if an observation is a carnivore or not.

I do not recommend suppressing the intercept when developing a model, especially if you are generating your contrasts independent of the model formula (e.g. when using brm()), and extra especially if you have more predictors in your model than just the categorical variable being coded out. If you are not careful, you might end up with the equivalent of two intercepts which causes a model to be completely undefined and useless.

As as been discussed before, R tacitly converts our categorical variables (e.g. variables where our observations are character data) into dummy coding. While this is convenient, it can lead to confusion if you aren’t super familiar with categorical variables. For example, I once had a colleague ask, “How are there 5 parameters when we only have 1 predictor in our linear regression (they expected three)?”

Something I like to do is make the most common or most general class be the intercept. This adds a bit of logic to the contrasts, as they are now “in contrast” to the most common state. The most common class in trophic_level is “herbivore”. To change which class becomes the intercept, we need to manipulate the R structure of trophic_level. I’m choosing to do this using functions from the forcats package.

(pantheria %>%
  drop_na(trophic_level) %>%
  mutate(trophic_level = fct_infreq(trophic_level)) %>% # reorder by frequency
  model_matrix(~ trophic_level))

## # A tibble: 2,161 x 3
##    `(Intercept)` trophic_levelomnivore trophic_levelcarnivore
##            <dbl>                 <dbl>                  <dbl>
##  1             1                     0                      0
##  2             1                     1                      0
##  3             1                     1                      0
##  4             1                     0                      1
##  5             1                     0                      1
##  6             1                     0                      0
##  7             1                     0                      0
##  8             1                     0                      0
##  9             1                     1                      0
## 10             1                     1                      0
## # … with 2,151 more rows
…
You might have realized that we’ve actually interacted with design matrices before when we were exploring how dummy coding is handled – the column of all 1s called Intercept is eactly what I’ve described here. For example, we can peak at the design matrix from the regression model we developed in this lesson.

(pantheria_fit2 %>%
  model_matrix(density_log ~ 1 + mass_log_stan + trophic_level))

## # A tibble: 746 x 4
##    `(Intercept)` mass_log_stan trophic_levelherbivore trophic_levelcarnivo…
##            <dbl>         <dbl>                  <dbl>                 <dbl>
##  1             1         0.967                      1                     0
##  2             1         0.333                      0                     0
##  3             1         0.321                      0                     0
##  4             1         0.357                      0                     1
##  5             1         0.517                      0                     1
##  6             1         1.05                       1                     0
##  7             1         1.01                       1                     0
##  8             1        -0.235                      0                     0
##  9             1        -0.282                      0                     0
## 10             1        -0.274                      0                     0
## # … with 736 more rows
…
