3 Introduction to linear regression | Analytical Paleobiology
…
# modify raw data for use
# genus can occur 1+ times
(d <- r %>%
  group_by(taxon_name, taxon) %>%
  dplyr::summarize(size = mean(size)) %>% # is this always a good idea?
  mutate(size_log = log(size)) %>%    # log transform
    ungroup())

## # A tibble: 3,980 x 4
##    taxon_name    taxon   size size_log
##    <chr>         <chr>  <dbl>    <dbl>
##  1 Abra          Biv    38       3.64 
##  2 Abrekia       Bra    11.6     2.45 
##  3 Abruptolopha  Biv    98.8     4.59 
##  4 Acambona      Bra    39.9     3.69 
##  5 Acanthalosia  Bra    37.5     3.62 
##  6 Acanthambonia Bra     1.74    0.556
##  7 Acanthatia    Bra    23.5     3.16 
##  8 Acanthocardia Biv   102.      4.63 
##  9 Acanthocosta  Bra    24.5     3.20 
## 10 Acanthopecten Biv    12.1     2.50 
## # … with 3,970 more rows
…
# what are the parameter named?
get_variables(m_1)

## [1] "b_Intercept"   "sigma"         "lp__"          "accept_stat__"
## [5] "stepsize__"    "treedepth__"   "n_leapfrog__"  "divergent__"  
## [9] "energy__"

# extract the samples
m_1 %>%
  spread_draws(b_Intercept, sigma)

## # A tibble: 4,000 x 5
##    .chain .iteration .draw b_Intercept sigma
##     <int>      <int> <int>       <dbl> <dbl>
##  1      1          1     1        3.20 0.919
##  2      1          2     2        3.20 0.913
##  3      1          3     3        3.19 0.919
##  4      1          4     4        3.19 0.931
##  5      1          5     5        3.21 0.903
##  6      1          6     6        3.21 0.907
##  7      1          7     7        3.21 0.916
##  8      1          8     8        3.20 0.932
##  9      1          9     9        3.21 0.910
## 10      1         10    10        3.21 0.909
## # … with 3,990 more rows
…
r %>%
  model_matrix(~ sub) %>%              # from modelr
  distinct()

## # A tibble: 3 x 3
##   `(Intercept)` subinart subnonHet
##           <dbl>    <dbl>     <dbl>
## 1             1        0         0
## 2             1        0         1
## 3             1        1         0

  r %>%
    model_matrix(~ sub)

## # A tibble: 164,402 x 3
##    `(Intercept)` subinart subnonHet
##            <dbl>    <dbl>     <dbl>
##  1             1        0         0
##  2             1        0         0
##  3             1        0         0
##  4             1        0         0
##  5             1        0         0
##  6             1        0         0
##  7             1        0         0
##  8             1        0         0
##  9             1        0         0
## 10             1        0         0
## # … with 164,392 more rows
…
