9 Varying-intercept models | Analytical Paleobiology
…
Here b_Intercept is the global meanwhile r_trophic_level[] variables are the offsets from that mean for each of the trophic level states.

tidybayes has convenience features to simultaneously extract all the different forms r_trophic_level[] appears as. Instead of writing out r_trophic_level[herbivore,Intercept] for each of the specific columns, we can more succinctly write out r_trophic_level[state,term].

This syntax will return our posterior draws with state and term as columns of the relevant information (trophic level and Intercept, respectively).

multilevel_fit %>%
  spread_draws(r_trophic_level[state, term])

## # A tibble: 12,000 x 6
## # Groups:   state, term [3]
##    .chain .iteration .draw state     term      r_trophic_level
##     <int>      <int> <int> <chr>     <chr>               <dbl>
##  1      1          1     1 carnivore Intercept         -1.10  
##  2      1          1     1 herbivore Intercept         -0.133 
##  3      1          1     1 omnivore  Intercept          0.744 
##  4      1          2     2 carnivore Intercept         -1.14  
##  5      1          2     2 herbivore Intercept         -0.0382
##  6      1          2     2 omnivore  Intercept          0.921 
##  7      1          3     3 carnivore Intercept         -1.04  
##  8      1          3     3 herbivore Intercept          0.646 
##  9      1          3     3 omnivore  Intercept          0.987 
## 10      1          4     4 carnivore Intercept         -1.15  
## # … with 11,990 more rows

You can even omit the second term.

multilevel_fit %>%
  spread_draws(r_trophic_level[state,])

## # A tibble: 12,000 x 5
## # Groups:   state [3]
##    .chain .iteration .draw state     r_trophic_level
##     <int>      <int> <int> <chr>               <dbl>
##  1      1          1     1 carnivore         -1.10  
##  2      1          1     1 herbivore         -0.133 
##  3      1          1     1 omnivore           0.744 
##  4      1          2     2 carnivore         -1.14  
##  5      1          2     2 herbivore         -0.0382
##  6      1          2     2 omnivore           0.921 
##  7      1          3     3 carnivore         -1.04  
##  8      1          3     3 herbivore          0.646 
##  9      1          3     3 omnivore           0.987 
## 10      1          4     4 carnivore         -1.15  
## # … with 11,990 more rows
…
